{
  "project_info": {
    "project_number": "771077887684",
    "firebase_url": "https://thahara-a65a8.firebaseio.com",
    "project_id": "thahara-a65a8",
    "storage_bucket": "thahara-a65a8.appspot.com"
  },
  "client": [
    {
      "client_info": {
        "mobilesdk_app_id": "1:771077887684:android:6e38ccfe976146c9",
        "android_client_info": {
          "package_name": "com.koding.thahara"
        }
      },
      "oauth_client": [
        {
          "client_id": "771077887684-13vphg19vn2mloli7c919j8dlt54ltfp.apps.googleusercontent.com",
          "client_type": 1,
          "android_info": {
            "package_name": "com.koding.thahara",
            "certificate_hash": "da770cfc6f6639f459443b8011d4acda31972caf"
          }
        },
        {
          "client_id": "771077887684-s5qdo9qqdj7i8vbah23vdr0o09inh5gi.apps.googleusercontent.com",
          "client_type": 3
        }
      ],
      "api_key": [
        {
          "current_key": "AIzaSyDPrJN_onptManIua13nwxVDKyoI6n-lH4"
        }
      ],
      "services": {
        "appinvite_service": {
          "other_platform_oauth_client": [
            {
              "client_id": "771077887684-s5qdo9qqdj7i8vbah23vdr0o09inh5gi.apps.googleusercontent.com",
              "client_type": 3
            }
          ]
        }
      }
    },
    {
      "client_info": {
        "mobilesdk_app_id": "1:771077887684:android:2258c4254ad6d857",
        "android_client_info": {
          "package_name": "com.koding.thaharahuser"
        }
      },
      "oauth_client": [
        {
          "client_id": "771077887684-k6otvqpdc0q65tgq25ldr9bhlugmsid2.apps.googleusercontent.com",
          "client_type": 1,
          "android_info": {
            "package_name": "com.koding.thaharahuser",
            "certificate_hash": "87f8cd55778ec4aaded1dcb3996f0df5fae66d00"
          }
        },
        {
          "client_id": "771077887684-ali0tgoro4bfl3sfit1v87jaspson1qi.apps.googleusercontent.com",
          "client_type": 1,
          "android_info": {
            "package_name": "com.koding.thaharahuser",
            "certificate_hash": "baed750fd8f0f113471c9b83e35b69654ba43699"
          }
        },
        {
          "client_id": "771077887684-ti897arhmfm8le6a791m0mr0sr2h4ai4.apps.googleusercontent.com",
          "client_type": 1,
          "android_info": {
            "package_name": "com.koding.thaharahuser",
            "certificate_hash": "da770cfc6f6639f459443b8011d4acda31972caf"
          }
        },
        {
          "client_id": "771077887684-s5qdo9qqdj7i8vbah23vdr0o09inh5gi.apps.googleusercontent.com",
          "client_type": 3
        }
      ],
      "api_key": [
        {
          "current_key": "AIzaSyDPrJN_onptManIua13nwxVDKyoI6n-lH4"
        }
      ],
      "services": {
        "appinvite_service": {
          "other_platform_oauth_client": [
            {
              "client_id": "771077887684-s5qdo9qqdj7i8vbah23vdr0o09inh5gi.apps.googleusercontent.com",
              "client_type": 3
            }
          ]
        }
      }
    }
  ],
  "configuration_version": "1"
}